<svg xmlns="http://www.w3.org/2000/svg" width="16" height="17" viewBox="0 0 16 17" fill="none">
<g clip-path="url(#clip0_11_8755)">
<path fill-rule="evenodd" clip-rule="evenodd" d="M9.84619 14.6016L9.8461 1.50061C9.8461 0.83623 9.21019 0.356566 8.57138 0.539084L1.95599 2.42919C1.52669 2.55185 1.23071 2.94424 1.23071 3.39072V14.6016H0.923077C0.413276 14.6016 0 15.0148 0 15.5246C0 16.0344 0.413276 16.4477 0.923077 16.4477H15.0769C15.5867 16.4477 16 16.0344 16 15.5246C16 15.0148 15.5867 14.6016 15.0769 14.6016H14.7693V6.76716C14.7693 6.30829 14.457 5.90831 14.0118 5.79702L9.84619 4.75562V14.6016ZM2.99994 6.00007C2.99994 5.72393 3.2238 5.50007 3.49994 5.50007H4.49994C4.77608 5.50007 4.99994 5.72393 4.99994 6.00007V7.00007C4.99994 7.27622 4.77608 7.50007 4.49994 7.50007H3.49994C3.2238 7.50007 2.99994 7.27622 2.99994 7.00007V6.00007ZM2.99994 9.00007C2.99994 8.72393 3.2238 8.50007 3.49994 8.50007H4.49994C4.77608 8.50007 4.99994 8.72393 4.99994 9.00007V10.0001C4.99994 10.2762 4.77608 10.5001 4.49994 10.5001H3.49994C3.2238 10.5001 2.99994 10.2762 2.99994 10.0001V9.00007ZM3.49994 11.5001C3.2238 11.5001 2.99994 11.7239 2.99994 12.0001V13.0001C2.99994 13.2762 3.2238 13.5001 3.49994 13.5001H4.49994C4.77608 13.5001 4.99994 13.2762 4.99994 13.0001V12.0001C4.99994 11.7239 4.77608 11.5001 4.49994 11.5001H3.49994ZM5.99994 6.00007C5.99994 5.72393 6.2238 5.50007 6.49994 5.50007H7.49994C7.77608 5.50007 7.99994 5.72393 7.99994 6.00007V7.00007C7.99994 7.27622 7.77608 7.50007 7.49994 7.50007H6.49994C6.2238 7.50007 5.99994 7.27622 5.99994 7.00007V6.00007ZM6.49994 8.50007C6.2238 8.50007 5.99994 8.72393 5.99994 9.00007V10.0001C5.99994 10.2762 6.2238 10.5001 6.49994 10.5001H7.49994C7.77608 10.5001 7.99994 10.2762 7.99994 10.0001V9.00007C7.99994 8.72393 7.77608 8.50007 7.49994 8.50007H6.49994ZM5.99994 12.0001C5.99994 11.7239 6.2238 11.5001 6.49994 11.5001H7.49994C7.77608 11.5001 7.99994 11.7239 7.99994 12.0001V13.0001C7.99994 13.2762 7.77608 13.5001 7.49994 13.5001H6.49994C6.2238 13.5001 5.99994 13.2762 5.99994 13.0001V12.0001ZM11.5 8.5C11.2239 8.5 11 8.72386 11 9V10C11 10.2761 11.2239 10.5 11.5 10.5H12.5C12.7762 10.5 13 10.2761 13 10V9C13 8.72386 12.7762 8.5 12.5 8.5H11.5ZM11.5 11.5C11.2239 11.5 11 11.7239 11 12V13C11 13.2761 11.2239 13.5 11.5 13.5H12.5C12.7762 13.5 13 13.2761 13 13V12C13 11.7239 12.7762 11.5 12.5 11.5H11.5Z" fill="#88ADD2"/>
</g>
<defs>
<clipPath id="clip0_11_8755">
<rect width="16" height="16" fill="white" transform="translate(0 0.5)"/>
</clipPath>
</defs>
</svg>